/home/pina/pina-api-dev/src/main/java/com/pina/app/controller/FileController.java
/home/pina/pina-api-dev/src/main/java/com/pina/app/model/FAQ.java
/home/pina/pina-api-dev/src/main/java/com/pina/app/payload/request/VerifyPhoneRequest.java
/home/pina/pina-api-dev/src/main/java/com/pina/app/service/EmailServiceImpl.java
/home/pina/pina-api-dev/src/main/java/com/pina/app/config/PasswordEncoderConfig.java
/home/pina/pina-api-dev/src/main/java/com/pina/app/model/QType.java
/home/pina/pina-api-dev/src/main/java/com/pina/app/payload/response/StockIndexResponse.java
/home/pina/pina-api-dev/src/main/java/com/pina/app/repository/VoteRep.java
/home/pina/pina-api-dev/src/main/java/com/pina/app/service/UserServiceImpl.java
/home/pina/pina-api-dev/src/main/java/com/pina/app/payload/request/FollowUser.java
/home/pina/pina-api-dev/src/main/java/com/pina/app/service/UserProfileServiceImpl.java
/home/pina/pina-api-dev/src/main/java/com/pina/app/payload/request/master/KelurahanUpdateRequest.java
/home/pina/pina-api-dev/src/main/java/com/pina/app/security/JwtTokenProvider.java
/home/pina/pina-api-dev/src/main/java/com/pina/app/security/JwtAuthenticationFilter.java
/home/pina/pina-api-dev/src/main/java/com/pina/app/payload/response/PagedResponse.java
/home/pina/pina-api-dev/src/main/java/com/pina/app/model/DemoProfile.java
/home/pina/pina-api-dev/src/main/java/com/pina/app/controller/RestExceptionHandler.java
/home/pina/pina-api-dev/src/main/java/com/pina/app/model/NewsFeedAccess.java
/home/pina/pina-api-dev/src/main/java/com/pina/app/repository/DemoRepo.java
/home/pina/pina-api-dev/src/main/java/com/pina/app/model/NewsFeed.java
/home/pina/pina-api-dev/src/main/java/com/pina/app/config/SecurityConfig.java
/home/pina/pina-api-dev/src/main/java/com/pina/app/payload/response/CityResponse.java
/home/pina/pina-api-dev/src/main/java/com/pina/app/payload/response/AgendaRespose.java
/home/pina/pina-api-dev/src/main/java/com/pina/app/controller/AgendaController.java
/home/pina/pina-api-dev/src/main/java/com/pina/app/model/Bank.java
/home/pina/pina-api-dev/src/main/java/com/pina/app/service/FAQService.java
/home/pina/pina-api-dev/src/main/java/com/pina/app/payload/UserSummary.java
/home/pina/pina-api-dev/src/main/java/com/pina/app/payload/request/PinCheckRequest.java
/home/pina/pina-api-dev/src/main/java/com/pina/app/model/ChoiceVoteCount.java
/home/pina/pina-api-dev/src/main/java/com/pina/app/payload/response/newsfeed/NFPostShare.java
/home/pina/pina-api-dev/src/main/java/com/pina/app/util/DateFormatUtil.java
/home/pina/pina-api-dev/src/main/java/com/pina/app/exception/AppException.java
/home/pina/pina-api-dev/src/main/java/com/pina/app/payload/response/newsfeed/NFComment.java
/home/pina/pina-api-dev/src/main/java/com/pina/app/payload/request/ChoiceRequest.java
/home/pina/pina-api-dev/src/main/java/com/pina/app/payload/request/master/CityRequest.java
/home/pina/pina-api-dev/src/main/java/com/pina/app/model/Province.java
/home/pina/pina-api-dev/src/main/java/com/pina/app/service/NewsFeedServiceImpl.java
/home/pina/pina-api-dev/src/main/java/com/pina/app/payload/response/BankResponse.java
/home/pina/pina-api-dev/src/main/java/com/pina/app/payload/response/LoginPinResponse.java
/home/pina/pina-api-dev/src/main/java/com/pina/app/payload/response/trading/Withdraw.java
/home/pina/pina-api-dev/src/main/java/com/pina/app/exception/MyFileNotFoundException.java
/home/pina/pina-api-dev/src/main/java/com/pina/app/controller/VirtualTradingController.java
/home/pina/pina-api-dev/src/main/java/com/pina/app/config/AuditingConfig.java
/home/pina/pina-api-dev/src/main/java/com/pina/app/repository/StockRep.java
/home/pina/pina-api-dev/src/main/java/com/pina/app/payload/request/master/KelurahanRequest.java
/home/pina/pina-api-dev/src/main/java/com/pina/app/payload/response/KecamatanResponse.java
/home/pina/pina-api-dev/src/main/java/com/pina/app/payload/request/WithdrawRequest.java
/home/pina/pina-api-dev/src/main/java/com/pina/app/payload/response/Group.java
/home/pina/pina-api-dev/src/main/java/com/pina/app/model/Stock.java
/home/pina/pina-api-dev/src/main/java/com/pina/app/payload/UserIdentityAvailability.java
/home/pina/pina-api-dev/src/main/java/com/pina/app/payload/response/ChoiceResponse.java
/home/pina/pina-api-dev/src/main/java/com/pina/app/service/FileStorageService.java
/home/pina/pina-api-dev/src/main/java/com/pina/app/payload/UserProfile.java
/home/pina/pina-api-dev/src/main/java/com/pina/app/service/StockServiceImpl.java
/home/pina/pina-api-dev/src/main/java/com/pina/app/model/Kelurahan.java
/home/pina/pina-api-dev/src/main/java/com/pina/app/repository/PollRep.java
/home/pina/pina-api-dev/src/main/java/com/pina/app/payload/request/VerifyStep3Request.java
/home/pina/pina-api-dev/src/main/java/com/pina/app/payload/request/LoginPinRequest.java
/home/pina/pina-api-dev/src/main/java/com/pina/app/model/City.java
/home/pina/pina-api-dev/src/main/java/com/pina/app/payload/request/VerifyStep4Request.java
/home/pina/pina-api-dev/src/main/java/com/pina/app/payload/request/CommentCreateRequest.java
/home/pina/pina-api-dev/src/main/java/com/pina/app/payload/request/SurveyAddRequest.java
/home/pina/pina-api-dev/src/main/java/com/pina/app/controller/NewsFeedController.java
/home/pina/pina-api-dev/src/main/java/com/pina/app/security/CustomUserDetailsService.java
/home/pina/pina-api-dev/src/main/java/com/pina/app/payload/response/ResetVerifyRequest.java
/home/pina/pina-api-dev/src/main/java/com/pina/app/payload/request/VerifyStep2Request.java
/home/pina/pina-api-dev/src/main/java/com/pina/app/payload/response/UserProfileResponse.java
/home/pina/pina-api-dev/src/main/java/com/pina/app/payload/request/VerifyStep1Request.java
/home/pina/pina-api-dev/src/main/java/com/pina/app/payload/request/StarterRequest.java
/home/pina/pina-api-dev/src/main/java/com/pina/app/model/SurveyAnswerChoice.java
/home/pina/pina-api-dev/src/main/java/com/pina/app/payload/request/StockRequest.java
/home/pina/pina-api-dev/src/main/java/com/pina/app/payload/response/JwtAuthenticationResponse.java
/home/pina/pina-api-dev/src/main/java/com/pina/app/model/Role.java
/home/pina/pina-api-dev/src/main/java/com/pina/app/model/FAQItem.java
/home/pina/pina-api-dev/src/main/java/com/pina/app/model/Choice.java
/home/pina/pina-api-dev/src/main/java/com/pina/app/controller/StockController.java
/home/pina/pina-api-dev/src/main/java/com/pina/app/service/DemoService.java
/home/pina/pina-api-dev/src/main/java/com/pina/app/repository/RoleRep.java
/home/pina/pina-api-dev/src/main/java/com/pina/app/controller/RealTradingController.java
/home/pina/pina-api-dev/src/main/java/com/pina/app/payload/response/AgendaResponse.java
/home/pina/pina-api-dev/src/main/java/com/pina/app/payload/response/newsfeed/NewsFeedPost.java
/home/pina/pina-api-dev/src/main/java/com/pina/app/payload/response/KelurahanResponse.java
/home/pina/pina-api-dev/src/main/java/com/pina/app/controller/FirebaseController.java
/home/pina/pina-api-dev/src/main/java/com/pina/app/payload/response/newsfeed/NFPostComment.java
/home/pina/pina-api-dev/src/main/java/com/pina/app/security/JwtAuthenticationEntryPoint.java
/home/pina/pina-api-dev/src/main/java/com/pina/app/repository/ProvinceRep.java
/home/pina/pina-api-dev/src/main/java/com/pina/app/payload/response/PeopleResponse.java
/home/pina/pina-api-dev/src/main/java/com/pina/app/payload/request/LoginRequest.java
/home/pina/pina-api-dev/src/main/java/com/pina/app/payload/request/VotesRequest.java
/home/pina/pina-api-dev/src/main/java/com/pina/app/exception/FileStorageException.java
/home/pina/pina-api-dev/src/main/java/com/pina/app/payload/response/trading/PortfolioPct.java
/home/pina/pina-api-dev/src/main/java/com/pina/app/model/SurveyOption.java
/home/pina/pina-api-dev/src/main/java/com/pina/app/payload/request/DemoRequest.java
/home/pina/pina-api-dev/src/main/java/com/pina/app/payload/request/PreferenceRequest.java
/home/pina/pina-api-dev/src/main/java/com/pina/app/controller/UnFollowController.java
/home/pina/pina-api-dev/src/main/java/com/pina/app/security/CurrentUser.java
/home/pina/pina-api-dev/src/main/java/com/pina/app/controller/FollowController.java
/home/pina/pina-api-dev/src/main/java/com/pina/app/payload/response/FollowUserResponse.java
/home/pina/pina-api-dev/src/main/java/com/pina/app/service/DemoServiceImpl.java
/home/pina/pina-api-dev/src/main/java/com/pina/app/repository/NewsFeedRep.java
/home/pina/pina-api-dev/src/main/java/com/pina/app/payload/response/ApiResponse.java
/home/pina/pina-api-dev/src/main/java/com/pina/app/model/Question.java
/home/pina/pina-api-dev/src/main/java/com/pina/app/payload/response/LocationResponse.java
/home/pina/pina-api-dev/src/main/java/com/pina/app/service/UserService.java
/home/pina/pina-api-dev/src/main/java/com/pina/app/payload/request/PollRequest.java
/home/pina/pina-api-dev/src/main/java/com/pina/app/payload/response/CheckTokenResponse.java
/home/pina/pina-api-dev/src/main/java/com/pina/app/controller/UserController.java
/home/pina/pina-api-dev/src/main/java/com/pina/app/exception/ResourceNotFoundException.java
/home/pina/pina-api-dev/src/main/java/com/pina/app/payload/response/newsfeed/NFPost.java
/home/pina/pina-api-dev/src/main/java/com/pina/app/payload/response/trading/Deposit.java
/home/pina/pina-api-dev/src/main/java/com/pina/app/payload/request/master/KecamatanUpdateRequest.java
/home/pina/pina-api-dev/src/main/java/com/pina/app/payload/response/newsfeed/NFUser.java
/home/pina/pina-api-dev/src/main/java/com/pina/app/payload/request/ResetLoginRequest.java
/home/pina/pina-api-dev/src/main/java/com/pina/app/property/FileStorageProperties.java
/home/pina/pina-api-dev/src/main/java/com/pina/app/payload/request/NewsFeedCreateRequest.java
/home/pina/pina-api-dev/src/main/java/com/pina/app/payload/response/trading/DepositResponse.java
/home/pina/pina-api-dev/src/main/java/com/pina/app/payload/request/FollowUserRequest.java
/home/pina/pina-api-dev/src/main/java/com/pina/app/payload/response/FollowStockResponse.java
/home/pina/pina-api-dev/src/main/java/com/pina/app/repository/KelurahanRep.java
/home/pina/pina-api-dev/src/main/java/com/pina/app/model/Survey.java
/home/pina/pina-api-dev/src/main/java/com/pina/app/payload/request/master/KecamatanRequest.java
/home/pina/pina-api-dev/src/main/java/com/pina/app/model/User.java
/home/pina/pina-api-dev/src/main/java/com/pina/app/payload/response/PollResponse.java
/home/pina/pina-api-dev/src/main/java/com/pina/app/payload/response/StockResponse.java
/home/pina/pina-api-dev/src/main/java/com/pina/app/repository/UserRep.java
/home/pina/pina-api-dev/src/main/java/com/pina/app/config/PostgreConfig.java
/home/pina/pina-api-dev/src/main/java/com/pina/app/config/WebMvcConfig.java
/home/pina/pina-api-dev/src/main/java/com/pina/app/service/NewsFeedService.java
/home/pina/pina-api-dev/src/main/java/com/pina/app/payload/request/FAQRequest.java
/home/pina/pina-api-dev/src/main/java/com/pina/app/repository/SurveyRep.java
/home/pina/pina-api-dev/src/main/java/com/pina/app/payload/request/SurveyAnswerRequest.java
/home/pina/pina-api-dev/src/main/java/com/pina/app/payload/Answer.java
/home/pina/pina-api-dev/src/main/java/com/pina/app/payload/response/newsfeed/NewsFeedUser.java
/home/pina/pina-api-dev/src/main/java/com/pina/app/service/FAQServiceImpl.java
/home/pina/pina-api-dev/src/main/java/com/pina/app/util/StringGenerator.java
/home/pina/pina-api-dev/src/main/java/com/pina/app/model/FacebookSignup.java
/home/pina/pina-api-dev/src/main/java/com/pina/app/model/AgendaStatus.java
/home/pina/pina-api-dev/src/main/java/com/pina/app/controller/AuthController.java
/home/pina/pina-api-dev/src/main/java/com/pina/app/model/Preference.java
/home/pina/pina-api-dev/src/main/java/com/pina/app/util/JpaJsonConverter.java
/home/pina/pina-api-dev/src/main/java/com/pina/app/service/PollService.java
/home/pina/pina-api-dev/src/main/java/com/pina/app/model/Vote.java
/home/pina/pina-api-dev/src/main/java/com/pina/app/config/KafkaProducerConfig.java
/home/pina/pina-api-dev/src/main/java/com/pina/app/repository/BankRep.java
/home/pina/pina-api-dev/src/main/java/com/pina/app/constants/HttpStatusCode.java
/home/pina/pina-api-dev/src/main/java/com/pina/app/payload/response/DemoResponse.java
/home/pina/pina-api-dev/src/main/java/com/pina/app/service/UserProfileService.java
/home/pina/pina-api-dev/src/main/java/com/pina/app/payload/request/VoteRequest.java
/home/pina/pina-api-dev/src/main/java/com/pina/app/controller/DataMasterController.java
/home/pina/pina-api-dev/src/main/java/com/pina/app/service/FileService.java
/home/pina/pina-api-dev/src/main/java/com/pina/app/model/Agenda.java
/home/pina/pina-api-dev/src/main/java/com/pina/app/model/Comment.java
/home/pina/pina-api-dev/src/main/java/com/pina/app/controller/FAQController.java
/home/pina/pina-api-dev/src/main/java/com/pina/app/service/FileServiceImpl.java
/home/pina/pina-api-dev/src/main/java/com/pina/app/service/FirebaseService.java
/home/pina/pina-api-dev/src/main/java/com/pina/app/payload/request/PinAddRequest.java
/home/pina/pina-api-dev/src/main/java/com/pina/app/util/AppConstants.java
/home/pina/pina-api-dev/src/main/java/com/pina/app/controller/SurveyController.java
/home/pina/pina-api-dev/src/main/java/com/pina/app/service/RealTradingService.java
/home/pina/pina-api-dev/src/main/java/com/pina/app/repository/SurveyAnswerRep.java
/home/pina/pina-api-dev/src/main/java/com/pina/app/config/AsyncConfiguration.java
/home/pina/pina-api-dev/src/main/java/com/pina/app/security/UserPrincipal.java
/home/pina/pina-api-dev/src/main/java/com/pina/app/payload/response/trading/PortfolioResponse.java
/home/pina/pina-api-dev/src/main/java/com/pina/app/model/RoleName.java
/home/pina/pina-api-dev/src/main/java/com/pina/app/repository/KecamatanRep.java
/home/pina/pina-api-dev/src/main/java/com/pina/app/model/NewsFeedType.java
/home/pina/pina-api-dev/src/main/java/com/pina/app/payload/response/LoginFBRequest.java
/home/pina/pina-api-dev/src/main/java/com/pina/app/payload/request/SignUpRequest.java
/home/pina/pina-api-dev/src/main/java/com/pina/app/controller/Demo.java
/home/pina/pina-api-dev/src/main/java/com/pina/app/util/ModelMapper.java
/home/pina/pina-api-dev/src/main/java/com/pina/app/model/UserSurvey.java
/home/pina/pina-api-dev/src/main/java/com/pina/app/repository/FAQRep.java
/home/pina/pina-api-dev/src/main/java/com/pina/app/payload/request/FacebookSignupRequest.java
/home/pina/pina-api-dev/src/main/java/com/pina/app/payload/response/trading/WithdrawResponse.java
/home/pina/pina-api-dev/src/main/java/com/pina/app/payload/request/FollowStockRequest.java
/home/pina/pina-api-dev/src/main/java/com/pina/app/repository/CityRep.java
/home/pina/pina-api-dev/src/main/java/com/pina/app/controller/PollController.java
/home/pina/pina-api-dev/src/main/java/com/pina/app/payload/response/newsfeed/NewsFeedResponse.java
/home/pina/pina-api-dev/src/main/java/com/pina/app/payload/response/MediaResponse.java
/home/pina/pina-api-dev/src/main/java/com/pina/app/payload/response/UploadFileResponse.java
/home/pina/pina-api-dev/src/main/java/com/pina/app/repository/AgendaRep.java
/home/pina/pina-api-dev/src/main/java/com/pina/app/util/TimeAgo.java
/home/pina/pina-api-dev/src/main/java/com/pina/app/model/audit/UserDateAudit.java
/home/pina/pina-api-dev/src/main/java/com/pina/app/model/Poll.java
/home/pina/pina-api-dev/src/main/java/com/pina/app/payload/request/VerifyRequest.java
/home/pina/pina-api-dev/src/main/java/com/pina/app/controller/PasswordController.java
/home/pina/pina-api-dev/src/main/java/com/pina/app/PinaApplication.java
/home/pina/pina-api-dev/src/main/java/com/pina/app/service/RealTradingServiceImpl.java
/home/pina/pina-api-dev/src/main/java/com/pina/app/model/UserProfile.java
/home/pina/pina-api-dev/src/main/java/com/pina/app/service/EmailService.java
/home/pina/pina-api-dev/src/main/java/com/pina/app/config/FirebaseConfig.java
/home/pina/pina-api-dev/src/main/java/com/pina/app/repository/CommentRep.java
/home/pina/pina-api-dev/src/main/java/com/pina/app/repository/UserProfileRep.java
/home/pina/pina-api-dev/src/main/java/com/pina/app/model/audit/DateAudit.java
/home/pina/pina-api-dev/src/main/java/com/pina/app/exception/BadRequestException.java
/home/pina/pina-api-dev/src/main/java/com/pina/app/payload/request/master/ProvinceRequest.java
/home/pina/pina-api-dev/src/main/java/com/pina/app/model/Kecamatan.java
/home/pina/pina-api-dev/src/main/java/com/pina/app/payload/request/master/CityUpdateRequest.java
/home/pina/pina-api-dev/src/main/java/com/pina/app/model/SurveyAnswer.java
/home/pina/pina-api-dev/src/main/java/com/pina/app/controller/UserVerifyController.java
/home/pina/pina-api-dev/src/main/java/com/pina/app/payload/NotificationMsg.java
/home/pina/pina-api-dev/src/main/java/com/pina/app/payload/request/AgendaAddRequest.java
/home/pina/pina-api-dev/src/main/java/com/pina/app/service/StockService.java
/home/pina/pina-api-dev/src/main/java/com/pina/app/controller/UsersController.java
/home/pina/pina-api-dev/src/main/java/com/pina/app/payload/PollLength.java
